609931 924725 525
900813 934507 476
527479 538178 377
975538 988033 427
841014 996922 507
853157 915057 476
801665 926006 525
593663 829282 509
674747 786355 504
361155 774089 509
626216 954150 525
779049 825735 468
997753 998817 440
76363 810482 509
938964 956730 507
664513 949792 525
937939 956189 507
884018 904606 445
57835 827232 509
318179 442171 449
983901 990044 427
508612 995197 525
87199 303021 443
986681 995429 396
708836 843030 525
496162 912651 525
897976 938906 476
518047 880159 525
654462 769091 504
994874 997252 365
491447 923159 525
59698 630825 509
394073 685246 509
483488 702882 509
810896 858947 525
452206 912341 525
194746 314211 443
506145 799655 509
882888 958075 507
477424 940214 525
31435 852683 525
713208 717693 380
101969 934425 525
398123 689540 509
113921 270917 443
236864 814687 509
729348 966424 525
409640 591588 470
352598 625141 470
201356 707558 509
156029 568314 470
422060 960187 525
934613 935054 308
262264 600684 470
661882 982867 525
119631 173990 383
962099 994799 458
940136 963875 414
925946 944380 507
990104 996554 365
227484 626991 509
962318 981541 458
264776 755319 509
680284 786414 504
560169 899958 525
487883 853198 525
332375 961735 525
743347 904694 525
680115 927709 525
865529 895183 445
360205 431059 449
928614 991064 507
450261 961194 525
837602 921655 525
832038 934608 525
200727 558653 470
643710 747129 504
809915 964178 525
516962 846827 525
523568 702804 509
742839 795473 468
590136 720105 509
289365 633787 509
923178 935128 476
51573 334242 443
237533 311702 407
467095 945442 525
112915 268662 443
974137 993555 427
224694 972554 525
23329 429699 449
791259 890987 525
326897 627519 509
762064 909504 525
572143 873767 525
538974 988551 525
577675 917719 525
421103 797139 509
701340 873847 525
243204 765068 509
589775 846289 525
71000 175134 383
815859 967421 525
145482 565434 470
139870 327920 443
616731 903725 525
555458 662672 509
217669 594732 470
410460 477172 444
15170 135459 354
574756 602283 434
359799 680354 509
523464 665956 509
694816 802574 504
947337 962541 414
973351 978847 383
643580 653791 385
325803 383308 441
400212 734579 509
12329 775817 509
464608 808111 509
111112 924082 525
726587 932443 525
848530 976349 507
511497 788556 509
951346 973030 458
350143 364379 410
914781 974787 507
13828 733374 509
372566 884228 525
809299 901215 525
439900 492838 444
283535 423315 449
195796 978105 525
358258 464817 449
937129 955651 507
448290 563573 470
61581 939932 525
60850 519943 470
447726 799944 509
583848 803010 509
774596 941246 525
778122 833205 468
976714 995772 427
646899 702231 442
898757 943390 507
812678 843181 525
291406 629808 509
164229 294282 443
450063 854752 525
319993 670408 509
577948 618382 447
450971 831547 509
791736 977774 525
712068 816258 468
130857 495620 449
657891 983908 525
666890 831912 504
815996 923595 525
461761 970754 525
273334 886010 525
300123 935678 525
734169 892880 525
455833 941065 525
734157 847993 525
65264 855527 525
976116 995504 427
766606 768053 468
171234 955348 525
418481 600491 470
499505 721636 509
58715 911918 525
880800 946419 507
7274 560114 470
81364 664229 509
684427 894710 525
54700 623726 470
133856 435857 449
79766 150246 375
2902 727078 509
885480 970809 507
636107 930504 525
659137 982032 525
728164 885763 525
860371 862536 326
360282 919801 525
401443 702589 509
135996 774466 509
458506 560319 470
707092 865912 525
927164 971907 507
953370 984702 458
453264 593075 470
315030 912083 525
987852 996935 365
577477 817448 509
48138 308894 443
244639 526911 470
179125 282270 443
687766 760320 504
